{
  "stats": {
    "suites": 1,
    "tests": 1,
    "passes": 1,
    "pending": 0,
    "failures": 0,
    "start": "2025-02-09T22:50:43.156Z",
    "end": "2025-02-09T22:50:43.601Z",
    "duration": 445,
    "testsRegistered": 1,
    "passPercent": 100,
    "pendingPercent": 0,
    "other": 0,
    "hasOther": false,
    "skipped": 0,
    "hasSkipped": false
  },
  "results": [
    {
      "uuid": "b55f2883-ede7-445c-a230-20d0c311a799",
      "title": "",
      "fullFile": "D:\\szubair\\Projects\\Automation\\MOCHA_REST\\MOCHA_REST_API_TESTING\\test\\get_all_users.test.ts",
      "file": "\\test\\get_all_users.test.ts",
      "beforeHooks": [],
      "afterHooks": [],
      "tests": [],
      "suites": [
        {
          "uuid": "03414706-1379-4fa2-b115-203a9350d3d9",
          "title": "GET AOI REQUEST",
          "fullFile": "D:\\szubair\\Projects\\Automation\\MOCHA_REST\\MOCHA_REST_API_TESTING\\test\\get_all_users.test.ts",
          "file": "\\test\\get_all_users.test.ts",
          "beforeHooks": [],
          "afterHooks": [],
          "tests": [
            {
              "title": "Get the list of all the users",
              "fullTitle": "GET AOI REQUEST Get the list of all the users",
              "timedOut": false,
              "duration": 429,
              "state": "passed",
              "speed": "slow",
              "pass": true,
              "fail": false,
              "pending": false,
              "context": "[\n  {\n    \"title\": \"2025-02-09 16:50:43.169  ==>>  Endpoint: https://reqres.in/api/users?page=2\",\n    \"value\": \"{\\n  \\\"page\\\": 2,\\n  \\\"per_page\\\": 6,\\n  \\\"total\\\": 12,\\n  \\\"total_pages\\\": 2,\\n  \\\"data\\\": [\\n    {\\n      \\\"id\\\": 7,\\n      \\\"email\\\": \\\"michael.lawson@reqres.in\\\",\\n      \\\"first_name\\\": \\\"Michael\\\",\\n      \\\"last_name\\\": \\\"Lawson\\\",\\n      \\\"avatar\\\": \\\"https://reqres.in/img/faces/7-image.jpg\\\"\\n    },\\n    {\\n      \\\"id\\\": 8,\\n      \\\"email\\\": \\\"lindsay.ferguson@reqres.in\\\",\\n      \\\"first_name\\\": \\\"Lindsay\\\",\\n      \\\"last_name\\\": \\\"Ferguson\\\",\\n      \\\"avatar\\\": \\\"https://reqres.in/img/faces/8-image.jpg\\\"\\n    },\\n    {\\n      \\\"id\\\": 9,\\n      \\\"email\\\": \\\"tobias.funke@reqres.in\\\",\\n      \\\"first_name\\\": \\\"Tobias\\\",\\n      \\\"last_name\\\": \\\"Funke\\\",\\n      \\\"avatar\\\": \\\"https://reqres.in/img/faces/9-image.jpg\\\"\\n    },\\n    {\\n      \\\"id\\\": 10,\\n      \\\"email\\\": \\\"byron.fields@reqres.in\\\",\\n      \\\"first_name\\\": \\\"Byron\\\",\\n      \\\"last_name\\\": \\\"Fields\\\",\\n      \\\"avatar\\\": \\\"https://reqres.in/img/faces/10-image.jpg\\\"\\n    },\\n    {\\n      \\\"id\\\": 11,\\n      \\\"email\\\": \\\"george.edwards@reqres.in\\\",\\n      \\\"first_name\\\": \\\"George\\\",\\n      \\\"last_name\\\": \\\"Edwards\\\",\\n      \\\"avatar\\\": \\\"https://reqres.in/img/faces/11-image.jpg\\\"\\n    },\\n    {\\n      \\\"id\\\": 12,\\n      \\\"email\\\": \\\"rachel.howell@reqres.in\\\",\\n      \\\"first_name\\\": \\\"Rachel\\\",\\n      \\\"last_name\\\": \\\"Howell\\\",\\n      \\\"avatar\\\": \\\"https://reqres.in/img/faces/12-image.jpg\\\"\\n    }\\n  ],\\n  \\\"support\\\": {\\n    \\\"url\\\": \\\"https://contentcaddy.io?utm_source=reqres&utm_medium=json&utm_campaign=referral\\\",\\n    \\\"text\\\": \\\"Tired of writing endless social media content? Let Content Caddy generate it for you.\\\"\\n  }\\n} \\n\\nResponse Time: 403 milliseconds\\n\\n\\u001b[1mThis is bold text\\u001b[0m\"\n  },\n  {\n    \"title\": \"GET API Comparison\",\n    \"value\": \"┌────────────────────┬──────────┬────────────────────┐\\n│ Parameter          │ Actual   │ Expected           │\\n├────────────────────┼──────────┼────────────────────┤\\n│ page               │ 2        │ 2                  │\\n├────────────────────┼──────────┼────────────────────┤\\n│ per_page           │ 6        │ 6                  │\\n├────────────────────┼──────────┼────────────────────┤\\n│ total_pages        │ 2        │ 2                  │\\n├────────────────────┼──────────┼────────────────────┤\\n│ total              │ 12       │ 12                 │\\n└────────────────────┴──────────┴────────────────────┘\"\n  }\n]",
              "code": "var context = this;\n    try {\n      var promise = fn.call(context);\n      if (promise != null && promise.then != null && promise.catch != null) {\n        return promise.catch(function(err) {\n          markRemainingTestsAndSubSuitesAsPending(context.test);\n          throw err;\n        });\n      } else {\n        return promise;\n      }\n    } catch (ex) {\n      markRemainingTestsAndSubSuitesAsPending(context.test);\n      throw ex;\n    }",
              "err": {},
              "uuid": "856c9aa0-423a-416e-b7b9-b2d66b024939",
              "parentUUID": "03414706-1379-4fa2-b115-203a9350d3d9",
              "isHook": false,
              "skipped": false
            }
          ],
          "suites": [],
          "passes": [
            "856c9aa0-423a-416e-b7b9-b2d66b024939"
          ],
          "failures": [],
          "pending": [],
          "skipped": [],
          "duration": 429,
          "root": false,
          "rootEmpty": false,
          "_timeout": 2000
        }
      ],
      "passes": [],
      "failures": [],
      "pending": [],
      "skipped": [],
      "duration": 0,
      "root": true,
      "rootEmpty": true,
      "_timeout": 2000
    }
  ],
  "meta": {
    "mocha": {
      "version": "11.1.0"
    },
    "mochawesome": {
      "options": {
        "quiet": false,
        "reportFilename": "mochawesome",
        "saveHtml": true,
        "saveJson": true,
        "consoleReporter": "spec",
        "useInlineDiffs": false,
        "code": true
      },
      "version": "7.1.3"
    },
    "marge": {
      "options": {
        "[object Object]": true
      },
      "version": "6.2.0"
    }
  }
}